-0.038,0.019
-0.075,0.023
-0.134,0.03
-0.19,0.036
-0.289,0.038
-0.398,0.023
-0.525,0.03
-0.649,0.03
-0.743,0.041
-0.84,0.083
-0.928,0.149
-0.982,0.213
-1.013,0.289
-1.035,0.374
-1.031,0.427
-1.01,0.41
-1.003,0.392
-1.006,0.378
-1.019,0.345
-1.054,0.329
-1.083,0.285
-1.133,0.2
-1.161,0.135
-1.209,0.045
-1.283,-0.053
-1.36,-0.128
-1.482,-0.195
-1.594,-0.213
-1.711,-0.209
-1.828,-0.168
-1.92,-0.079
-1.99,0.012
-2.021,0.091
-2.053,0.178
-2.095,0.264
-2.11,0.289
-2.078,0.267
-2.036,0.252
-1.975,0.231
-1.897,0.21
-1.817,0.189
-1.712,0.134
-1.614,0.064
-1.527,-0.049
-1.45,-0.208
-1.425,-0.399
-1.431,-0.576
-1.481,-0.769
-1.541,-0.944
-1.589,-1.052
-1.599,-1.135
-1.57,-1.196
-1.497,-1.203
-1.36,-1.176
-1.255,-1.13
-1.22,-1.153
-1.19,-1.185
-1.192,-1.176
-1.21,-1.148
-1.246,-1.113
-1.287,-1.065
-1.351,-1.012
-1.41,-0.944
-1.481,-0.858
-1.558,-0.774
-1.639,-0.656
-1.687,-0.551
-1.713,-0.459
-1.731,-0.359
-1.704,-0.256
-1.67,-0.19
-1.633,-0.124
-1.585,-0.072
-1.555,-0.05
-1.509,-0.028
-1.479,-0.019
-1.456,-0.019
-1.423,-0.028
-1.362,-0.02
-1.323,-0.017
-1.24,-0.025
-1.154,-0.063
-1.079,-0.119
-1.022,-0.192
-0.985,-0.305
-0.992,-0.391
-1.007,-0.486
-1.046,-0.547
-1.06,-0.569
-1.078,-0.487
-1.084,-0.414
-1.075,-0.381
-1.08,-0.329
-1.116,-0.249
-1.121,-0.19
-1.093,-0.131
-1.007,-0.1
-0.969,-0.257
-1.01,-0.59
-1.079,-1.09
-1.166,-1.681
-1.306,-2.55
-1.487,-3.543
-1.658,-4.397
-1.842,-5.283
-1.974,-5.982
-2.034,-6.423
-2.045,-6.78
-2.019,-6.966
-1.996,-7.006
-1.973,-7.005
-1.96,-7.025
-1.961,-7.068
-1.921,-7.105
-1.899,-7.134
-1.891,-7.167
-1.878,-7.18
-1.867,-7.179
-1.87,-7.145
-1.958,-7.104
-2.042,-7.057
-2.048,-7.03
-2.027,-7.022
-1.979,-6.983
-1.942,-6.944
-1.875,-6.884
-1.796,-6.838
-1.719,-6.76
-1.639,-6.692
-1.542,-6.624
-1.468,-6.557
-1.395,-6.509
-1.322,-6.487
-1.265,-6.45
-1.235,-6.454
-1.196,-6.449
-1.169,-6.435
-1.132,-6.4
-1.107,-6.38
-1.106,-6.355
-1.097,-6.358
-1.135,-6.328
-1.153,-6.302
-1.141,-6.267
-1.103,-6.226
-1.048,-6.182
-0.887,-5.804
-0.686,-5.216
-0.467,-4.522
-0.132,-3.444
0.318,-2.057
0.817,-0.649
1.542,1.154
2.402,2.975
3.2,4.418
4.127,5.854
4.96,6.977
5.541,7.71
6.023,8.356
6.277,8.844
6.331,9.048
6.343,9.042
6.332,8.976
6.343,8.914
6.36,8.848
6.376,8.747
6.379,8.649
6.408,8.506
6.41,8.362
6.391,8.226
6.357,8.065
6.279,7.922
6.2,7.82
6.104,7.719
5.985,7.655
5.893,7.601
5.794,7.569
5.705,7.547
5.649,7.522
5.619,7.542
5.595,7.657
5.587,7.731
5.6,7.746
5.65,7.769
5.691,7.784
5.733,7.828
5.811,7.882
5.901,7.928
6.017,7.939
6.17,7.897
6.291,7.784
6.401,7.58
6.434,7.327
6.388,7.124
6.304,6.944
6.249,6.821
6.241,6.764
6.327,6.72
6.551,6.546
6.788,6.31
7.186,5.913
7.73,5.368
8.3,4.799
9.023,4.075
9.719,3.379
10.229,2.869
10.689,2.409
11.009,2.089
11.193,1.907
11.287,1.819
11.292,1.778
11.31,1.756
11.336,1.715
11.356,1.656
11.35,1.612
11.33,1.534
11.323,1.461
11.326,1.446
11.369,1.418
11.4,1.41
11.402,1.447
11.408,1.534
11.418,1.595
11.434,1.609
11.458,1.613
11.487,1.633
11.528,1.662
11.589,1.696
11.65,1.726
11.701,1.731
11.783,1.716
11.809,1.667
11.85,1.611
11.863,1.555
11.871,1.612
11.858,1.688
11.848,1.742
11.846,1.749
11.821,1.768
11.803,1.808
11.785,1.84
11.797,1.878
11.797,1.923
11.799,1.967
11.796,1.995
11.758,2.015
11.742,1.973
11.755,1.847
11.766,1.639
11.784,1.327
11.803,0.973
11.826,0.494
11.844,0.015
11.851,-0.339
11.848,-0.652
11.837,-0.86
11.827,-0.975
11.839,-1.015
11.842,-1.023
11.872,-1.033
11.9,-1.053
11.947,-1.076
11.995,-1.107
12.016,-1.159
12.014,-1.201
11.994,-1.247
11.969,-1.277
11.955,-1.275
11.961,-1.256
11.964,-1.239
11.968,-1.206
11.94,-1.176
11.9,-1.111
11.858,-1.064
11.806,-1.014
11.744,-0.914
11.702,-0.796
11.654,-0.686
11.624,-0.539
11.61,-0.378
11.619,-0.231
11.653,-0.05
11.701,0.092
11.75,0.193
11.782,0.311
11.796,0.394
11.783,0.441
11.741,0.479
11.664,0.524
11.614,0.481
11.652,0.419
11.685,0.356
11.666,0.325
11.63,0.304
11.618,0.266
11.593,0.215
11.551,0.146
11.475,0.059
11.393,-0.007
11.287,-0.102
11.165,-0.149
11.03,-0.18
10.869,-0.187
10.725,-0.163
10.616,-0.122
10.504,-0.048
10.42,-0.001
10.386,0.008
10.336,-0.01
10.367,-0.056
10.342,-0.111
10.309,-0.163
10.299,-0.198
10.32,-0.222
10.294,-0.259
10.298,-0.313
10.303,-0.38
10.281,-0.474
10.265,-0.565
10.237,-0.62
10.171,-0.672
10.103,-0.734
10.029,-0.74
9.977,-0.754
9.874,-0.791
9.763,-0.872
9.579,-1.019
9.301,-1.223
8.982,-1.424
8.546,-1.651
8.116,-1.84
7.815,-1.977
7.581,-2.133
7.469,-2.3
7.423,-2.428
7.401,-2.465
7.36,-2.471
7.305,-2.502
7.238,-2.517
7.16,-2.55
7.057,-2.583
6.921,-2.62
6.796,-2.647
6.681,-2.691
6.543,-2.735
6.414,-2.767
6.315,-2.777
6.217,-2.785
6.132,-2.793
6.07,-2.789
6.031,-2.81
6.003,-2.779
5.99,-2.819
5.913,-2.924
5.832,-3.002
5.788,-3.004
5.739,-2.972
5.694,-2.973
5.649,-2.933
5.58,-2.915
5.478,-2.873
5.377,-2.825
5.259,-2.774
5.138,-2.7
5.033,-2.638
4.933,-2.539
4.853,-2.44
4.786,-2.386
4.725,-2.32
4.691,-2.287
4.658,-2.255
4.628,-2.226
4.617,-2.222
4.637,-2.155
4.658,-2.08
4.657,-2.065
4.677,-2.075
4.696,-2.115
4.748,-2.16
4.784,-2.201
4.804,-2.272
4.829,-2.372
4.809,-2.446
4.787,-2.538
4.728,-2.573
4.683,-2.645
4.688,-2.635
4.753,-2.499
4.779,-2.27
4.814,-1.873
4.861,-1.313
4.91,-0.714
4.976,0.053
5.05,0.786
5.115,1.314
5.193,1.776
5.27,2.084
5.329,2.251
5.334,2.302
5.314,2.327
5.307,2.312
5.265,2.351
5.234,2.387
5.184,2.407
5.167,2.424
5.134,2.454
5.117,2.48
5.124,2.491
5.157,2.522
5.21,2.521
5.251,2.517
5.292,2.52
5.325,2.511
5.394,2.504
5.469,2.498
5.539,2.496
5.655,2.503
5.776,2.513
5.899,2.523
6.045,2.534
6.186,2.54
6.319,2.53
6.445,2.494
6.55,2.413
6.619,2.338
6.686,2.224
6.709,2.086
6.716,1.955
6.705,1.864
6.683,1.855
6.675,1.845
6.682,1.843
6.707,1.865
6.746,1.881
6.785,1.895
6.843,1.944
6.904,1.999
6.993,2.053
7.107,2.101
7.217,2.13
7.354,2.147
7.489,2.11
7.593,2.057
7.692,1.976
7.758,1.888
7.8,1.809
7.832,1.737
7.819,1.727
7.832,1.765
7.85,1.808
7.849,1.794
7.833,1.761
7.84,1.711
7.818,1.652
7.806,1.589
7.786,1.491
7.733,1.378
7.67,1.269
7.564,1.162
7.406,1.066
7.256,1.009
7.078,0.981
6.92,0.984
6.812,0.987
6.719,0.984
6.674,0.946
6.654,0.866
6.701,0.765
6.755,0.661
6.792,0.668
6.828,0.68
6.822,0.678
6.801,0.649
6.775,0.606
6.762,0.526
6.721,0.486
6.676,0.396
6.617,0.289
6.571,0.184
6.516,0.056
6.443,-0.052
6.391,-0.132
6.336,-0.231
6.29,-0.302
6.265,-0.348
6.222,-0.391
6.202,-0.408
6.199,-0.405
6.173,-0.314
6.136,-0.204
6.123,-0.184
6.125,-0.221
6.16,-0.257
6.162,-0.312
6.211,-0.39
6.257,-0.461
6.287,-0.568
6.301,-0.701
6.254,-0.845
6.18,-0.981
6.043,-1.113
5.862,-1.203
5.695,-1.243
5.556,-1.257
5.436,-1.274
5.361,-1.284
5.342,-1.315
5.358,-1.319
5.357,-1.28
5.356,-1.236
5.36,-1.236
5.359,-1.276
5.366,-1.311
5.371,-1.392
5.376,-1.457
5.372,-1.547
5.344,-1.682
5.275,-1.772
5.162,-1.87
4.99,-1.936
4.84,-1.937
4.686,-1.897
4.549,-1.881
4.479,-1.873
4.459,-1.867
4.579,-2.042
4.76,-2.305
5.068,-2.738
5.51,-3.355
5.988,-4.05
6.611,-5.04
7.212,-6.147
7.639,-7.094
7.994,-8.082
8.215,-8.866
8.347,-9.356
8.492,-9.726
8.622,-9.869
8.66,-9.864
8.696,-9.848
8.755,-9.822
8.809,-9.779
8.891,-9.746
9.017,-9.682
9.097,-9.633
9.232,-9.574
9.354,-9.501
9.434,-9.482
9.529,-9.461
9.609,-9.438
9.657,-9.419
9.692,-9.407
9.738,-9.408
9.784,-9.414
9.776,-9.443
9.763,-9.465
9.743,-9.444
9.758,-9.411
9.743,-9.339
9.745,-9.292
9.74,-9.192
9.732,-9.107
9.721,-9.015
9.699,-8.878
9.702,-8.725
9.688,-8.597
9.685,-8.433
9.648,-8.245
9.644,-8.084
9.643,-7.93
9.629,-7.758
9.606,-7.619
9.608,-7.461
9.604,-7.357
9.597,-7.271
9.606,-7.17
9.6,-7.094
9.604,-7.029
9.618,-6.973
9.604,-6.941
9.62,-6.917
9.546,-6.928
9.462,-6.939
9.452,-6.946
9.473,-6.948
9.498,-6.926
9.558,-6.916
9.617,-6.91
9.662,-6.906
9.653,-6.89
9.449,-6.8
9.116,-6.621
8.702,-6.401
8.047,-6.055
7.227,-5.621
6.453,-5.21
5.574,-4.738
4.826,-4.325
4.331,-4.04
3.924,-3.788
3.666,-3.613
3.564,-3.55
3.539,-3.579
3.557,-3.639
3.541,-3.684
3.558,-3.762
3.539,-3.866
3.502,-3.966
3.46,-4.074
3.358,-4.182
3.235,-4.251
3.083,-4.284
2.934,-4.292
2.818,-4.266
2.748,-4.266
2.717,-4.271
2.735,-4.301
2.794,-4.295
2.856,-4.277
2.896,-4.281
2.92,-4.294
2.959,-4.324
3.01,-4.354
3.052,-4.399
3.118,-4.452
3.217,-4.508
3.329,-4.574
3.452,-4.663
3.557,-4.744
3.676,-4.839
3.78,-4.963
3.851,-5.046
3.945,-5.167
3.983,-5.265
4.029,-5.34
4.052,-5.414
4.054,-5.5
4.069,-5.53
4.052,-5.538
3.962,-5.381
3.833,-5.155
3.611,-4.77
3.305,-4.244
2.99,-3.702
2.605,-3.032
2.257,-2.416
2.021,-1.984
1.828,-1.609
1.712,-1.356
1.655,-1.214
1.652,-1.159
1.645,-1.107
1.646,-1.055
1.632,-0.972
1.61,-0.889
1.598,-0.8
1.572,-0.665
1.546,-0.521
1.539,-0.375
1.528,-0.237
1.537,-0.079
1.588,0.047
1.604,0.185
1.667,0.308
1.721,0.391
1.79,0.471
1.841,0.506
1.881,0.559
1.915,0.604
1.908,0.63
1.937,0.679
1.967,0.729
2.002,0.729
2.022,0.707
2.074,0.683
2.147,0.659
2.215,0.646
2.32,0.618
2.45,0.565
2.545,0.525
2.665,0.446
2.799,0.364
2.892,0.3
2.984,0.209
3.061,0.104
3.092,0.006
3.117,-0.075
3.141,-0.164
3.13,-0.203
3.152,-0.255
3.183,-0.242
3.195,-0.211
3.209,-0.192
3.206,-0.196
3.222,-0.213
3.229,-0.231
3.241,-0.256
3.227,-0.287
3.204,-0.339
3.177,-0.351
3.15,-0.364
3.136,-0.376
3.056,-0.357
2.93,-0.277
2.706,-0.133
2.391,0.071
2.061,0.289
1.656,0.563
1.293,0.82
1.051,1.002
0.855,1.159
0.733,1.259
0.698,1.283
0.72,1.312
0.762,1.305
0.823,1.317
0.892,1.336
0.97,1.345
1.054,1.337
1.144,1.316
1.205,1.244
1.242,1.158
1.231,1.062
1.215,0.954
1.21,0.908
1.218,0.924
1.229,0.946
1.224,0.921
1.248,0.887
1.25,0.851
1.268,0.792
1.273,0.736
1.282,0.626
1.315,0.542
1.315,0.399
1.281,0.224
1.233,0.112
1.159,-0.064
1.079,-0.202
0.995,-0.311
0.924,-0.418
0.874,-0.524
0.86,-0.61
0.896,-0.682
0.954,-0.755
1.031,-0.814
1.143,-0.865
1.179,-0.873
1.16,-0.877
1.149,-0.874
1.116,-0.854
1.089,-0.82
1.042,-0.787
0.98,-0.747
0.911,-0.71
0.84,-0.66
0.723,-0.582
0.632,-0.511
0.53,-0.413
0.392,-0.278
0.309,-0.156
0.247,-0.007
0.183,0.171
0.171,0.313
0.15,0.482
0.136,0.612
0.14,0.714
0.157,0.818
0.185,0.9
0.173,0.951
0.139,0.987
0.091,1.004
0.021,1.019
-0.067,1.044
-0.114,1.066
-0.15,1.047
-0.201,1.058
-0.28,1.058
-0.333,1.07
-0.431,1.071
-0.535,1.082
-0.657,1.077
-0.815,1.073
-0.965,1.088
-1.103,1.103
-1.266,1.141
-1.411,1.141
-1.525,1.193
-1.669,1.258
-1.759,1.303
-1.828,1.362
-1.89,1.425
-1.931,1.492
-1.957,1.553
-1.956,1.638
-1.926,1.788
-1.866,1.949
-1.76,2.227
-1.603,2.6
-1.424,2.969
-1.185,3.393
-0.957,3.749
-0.806,3.981
-0.706,4.178
-0.681,4.316
-0.694,4.381
-0.721,4.426
-0.745,4.473
-0.754,4.526
-0.799,4.6
-0.861,4.691
-0.898,4.792
-0.934,4.927
-0.977,5.059
-1.002,5.203
-1.025,5.327
-1.05,5.423
-1.068,5.493
-1.084,5.58
-1.133,5.615
-1.187,5.665
-1.246,5.657
-1.263,5.62
-1.281,5.581
-1.298,5.539
-1.271,5.509
-1.254,5.49
-1.212,5.469
-1.144,5.447
-1.077,5.417
-0.993,5.352
-0.915,5.257
-0.851,5.13
-0.835,4.96
-0.885,4.769
-0.964,4.612
-1.069,4.48
-1.163,4.372
-1.195,4.288
-1.188,4.227
-1.084,4.203
-0.953,4.212
-0.87,4.241
-0.822,4.239
-0.8,4.242
-0.839,4.247
-0.884,4.256
-0.928,4.242
-1.016,4.247
-1.096,4.241
-1.178,4.235
-1.299,4.202
-1.422,4.204
-1.557,4.203
-1.71,4.193
-1.878,4.205
-2.041,4.206
-2.219,4.219
-2.397,4.258
-2.535,4.3
-2.691,4.355
-2.821,4.436
-2.918,4.489
-3.029,4.567
-3.116,4.653
-3.165,4.716
-3.225,4.761
-3.251,4.841
-3.284,4.875
-3.288,4.889
-3.26,4.884
-3.236,4.879
-3.201,4.869
-3.173,4.872
-3.137,4.878
-3.058,4.89
-2.98,4.868
-2.9,4.851
-2.782,4.812
-2.664,4.765
-2.562,4.712
-2.471,4.617
-2.383,4.545
-2.326,4.509
-2.249,4.511
-2.188,4.549
-2.13,4.595
-2.039,4.703
-1.935,4.826
-1.821,4.985
-1.63,5.252
-1.373,5.6
-1.109,5.924
-0.785,6.271
-0.485,6.531
-0.274,6.675
-0.092,6.773
0.016,6.803
0.049,6.794
0.071,6.761
0.111,6.71
0.132,6.663
0.174,6.571
0.234,6.477
0.291,6.376
0.379,6.257
0.443,6.119
0.506,5.992
0.577,5.851
0.641,5.712
0.684,5.61
0.75,5.488
0.783,5.377
0.828,5.315
0.872,5.274
0.915,5.217
0.947,5.188
0.981,5.169
0.999,5.16
1.012,5.151
1.015,5.156
1.016,5.175
0.99,5.229
0.977,5.277
0.954,5.346
0.928,5.42
0.889,5.505
0.858,5.651
0.818,5.772
0.76,5.908
0.724,6.055
0.682,6.168
0.628,6.283
0.595,6.389
0.562,6.466
0.538,6.548
0.518,6.584
0.519,6.624
0.504,6.649
0.529,6.669
0.521,6.662
0.52,6.653
0.517,6.654
0.511,6.657
0.525,6.653
0.533,6.655
0.532,6.66
0.535,6.654
0.538,6.648
0.538,6.658
0.279,6.589
-0.203,6.418
-0.782,6.207
-1.7,5.873
-2.899,5.436
-4.121,4.992
-5.678,4.425
-7.222,3.863
-8.418,3.428
-9.578,3.006
-10.457,2.686
-11.007,2.485
-11.455,2.323
-11.649,2.265
-11.663,2.289
-11.656,2.319
-11.696,2.362
-11.714,2.415
-11.729,2.488
-11.753,2.557
-11.754,2.634
-11.773,2.684
-11.765,2.73
-11.78,2.747
-11.76,2.769
-11.748,2.862
-11.73,2.962
-11.726,3.012
-11.679,3.025
-11.649,3.042
-11.587,3.06
-11.525,3.118
-11.454,3.14
-11.352,3.191
-11.23,3.237
-11.124,3.262
-10.992,3.282
-10.868,3.241
-10.763,3.181
-10.675,3.062
-10.604,2.923
-10.579,2.806
-10.587,2.672
-10.574,2.64
-10.532,2.669
-10.484,2.698
-10.447,2.717
-10.437,2.713
-10.403,2.704
-10.35,2.731
-10.281,2.765
-10.205,2.757
-10.122,2.754
-10.052,2.734
-9.972,2.669
-9.931,2.635
-9.898,2.622
-9.864,2.592
-9.879,2.581
-9.842,2.524
-9.801,2.454
-9.821,2.408
-9.906,2.361
-10.104,2.426
-10.273,2.494
-10.213,2.331
-9.708,2.42
-9.011,2.716
-8.216,3.068
-7.014,3.612
-5.492,4.307
-3.945,5.007
-1.924,5.9
0.208,6.796
2.004,7.498
3.935,8.174
5.599,8.66
6.781,8.923
7.88,9.077
8.714,9.109
9.242,9.076
9.469,9.033
9.435,9.038
9.428,9.006
9.384,8.971
9.32,8.955
9.241,8.942
9.176,8.953
9.134,8.959
9.074,8.941
9.076,8.888
9.065,8.834
9.091,8.81
9.149,8.853
9.185,8.893
9.166,8.907
9.13,8.913
9.096,8.951
9.045,8.975
8.979,8.998
8.871,9.054
8.766,9.073
8.67,9.142
8.547,9.215
8.484,9.276
8.422,9.371
8.389,9.449
8.364,9.52
8.354,9.606
8.361,9.666
8.345,9.674
8.232,9.636
8.113,9.597
8.078,9.586
8.074,9.6
8.056,9.635
8.018,9.656
7.989,9.713
7.963,9.767
7.944,9.789
7.904,9.823
7.902,9.843
7.892,9.854
7.885,9.823
7.889,9.786
7.891,9.751
7.898,9.735
7.906,9.743
7.915,9.743
7.956,9.747
7.995,9.778
8.017,9.765
8.05,9.725
8.136,9.581
8.285,9.316
8.533,8.878
8.896,8.251
9.307,7.548
9.885,6.559
10.512,5.474
11.025,4.565
11.53,3.629
11.897,2.885
12.103,2.403
12.238,1.997
12.287,1.78
12.261,1.783
12.226,1.787
12.171,1.825
12.113,1.87
12.048,1.942
11.975,2.018
11.94,2.109
11.888,2.242
11.838,2.372
11.829,2.501
11.803,2.578
11.761,2.651
11.706,2.655
11.631,2.664
11.527,2.626
11.511,2.586
11.551,2.53
11.584,2.485
11.591,2.458
11.605,2.433
11.622,2.386
11.648,2.322
11.696,2.267
11.751,2.151
11.805,2.082
11.861,1.963
11.907,1.87
11.979,1.789
12.011,1.684
12.021,1.637
12.023,1.576
12.041,1.531
12.018,1.506
12.007,1.53
11.984,1.61
11.97,1.668
11.963,1.685
11.969,1.7
11.945,1.732
11.922,1.775
11.929,1.821
11.92,1.897
11.981,1.96
12.055,1.99
12.099,1.982
12.167,1.988
12.151,1.996
12.13,2.027
12.124,2.054
12.136,2.051
12.159,2.037
12.193,2.008
12.238,1.952
12.306,1.906
12.358,1.818
12.438,1.746
12.516,1.647
12.588,1.538
12.651,1.386
12.698,1.263
12.716,1.14
12.73,1.011
12.769,0.916
12.777,0.83
12.805,0.788
12.864,0.773
12.915,0.752
12.948,0.566
12.966,0.288
12.992,-0.062
13.034,-0.623
13.077,-1.33
13.102,-1.992
13.105,-2.73
13.076,-3.34
13.035,-3.732
12.985,-4.046
12.954,-4.225
12.959,-4.261
12.952,-4.256
12.948,-4.23
12.931,-4.206
12.912,-4.191
12.919,-4.141
12.91,-4.126
12.917,-4.102
12.92,-4.104
12.932,-4.064
12.964,-4.056
12.989,-4.058
13.009,-4.073
13.047,-4.066
13.109,-4.055
13.149,-4.051
13.242,-4.068
13.329,-4.105
13.418,-4.167
13.491,-4.279
13.505,-4.428
13.522,-4.552
13.475,-4.672
13.451,-4.766
13.454,-4.799
13.511,-4.809
13.586,-4.831
13.661,-4.861
13.7,-4.899
13.683,-4.945
13.665,-4.977
13.656,-5.043
13.639,-5.114
13.62,-5.196
13.581,-5.308
13.531,-5.43
13.472,-5.523
13.367,-5.644
13.263,-5.777
13.131,-5.857
12.98,-5.952
12.82,-6
12.707,-6.032
12.613,-6.065
12.536,-6.109
12.498,-6.157
12.481,-6.231
12.504,-6.317
12.555,-6.374
12.583,-6.381
12.599,-6.399
12.258,-6.51
11.654,-6.879
11.651,-6.826
11.659,-6.618
11.671,-6.274
11.686,-5.83
11.701,-5.41
11.717,-4.946
11.73,-4.57
11.739,-4.337
11.745,-4.155
11.755,-4.066
11.783,-4.082
11.81,-4.114
11.852,-4.123
11.912,-4.179
11.979,-4.245
12.014,-4.331
12.05,-4.423
12.08,-4.526
12.05,-4.63
12.032,-4.72
12.007,-4.805
11.977,-4.854
11.993,-4.874
12.007,-4.931
12.015,-4.982
12.017,-5.013
12.007,-5.007
11.971,-4.976
11.916,-4.973
11.867,-4.95
11.785,-4.915
11.703,-4.877
11.602,-4.815
11.489,-4.763
11.399,-4.716
11.309,-4.673
11.226,-4.634
11.18,-4.595
11.137,-4.544
11.098,-4.506
11.086,-4.494
11.087,-4.519
11.096,-4.531
11.106,-4.531
11.11,-4.497
11.115,-4.462
11.103,-4.407
11.107,-4.355
11.13,-4.236
11.129,-4.159
11.143,-4.042
11.148,-3.907
11.167,-3.782
11.179,-3.636
11.209,-3.519
11.23,-3.417
11.243,-3.346
11.253,-3.261
11.25,-3.21
11.237,-3.16
11.234,-3.13
11.214,-3.098
11.124,-3.039
11.07,-2.998
11.05,-2.988
10.996,-2.991
10.93,-3.006
10.878,-3.007
10.783,-3.011
10.681,-3.001
10.583,-2.984
10.434,-2.943
10.302,-2.873
10.211,-2.786
10.093,-2.677
10.021,-2.55
9.962,-2.46
9.904,-2.407
9.84,-2.392
9.785,-2.404
9.745,-2.464
9.69,-2.543
9.652,-2.58
9.616,-2.606
9.616,-2.613
9.612,-2.618
9.604,-2.626
9.593,-2.628
9.602,-2.629
9.592,-2.63
9.6,-2.603
9.596,-2.583
9.672,-2.366
9.803,-1.964
9.964,-1.469
10.22,-0.681
10.548,0.33
10.871,1.323
11.258,2.515
11.612,3.604
11.864,4.379
12.087,5.068
12.243,5.546
12.331,5.821
12.357,5.954
12.33,5.984
12.299,6.018
12.258,6.07
12.218,6.142
12.167,6.222
12.1,6.337
12.046,6.461
12.016,6.563
12,6.711
11.977,6.842
11.97,6.942
11.934,7.004
11.88,7.083
11.839,7.094
11.755,7.094
11.692,7.075
11.666,7.072
11.639,7.09
11.619,7.114
11.599,7.131
11.568,7.154
11.511,7.202
11.471,7.273
11.419,7.341
11.356,7.426
11.278,7.511
11.189,7.616
11.087,7.733
11.022,7.82
10.965,7.96
10.885,8.094
10.837,8.162
10.809,8.226
10.797,8.304
10.747,8.345
10.722,8.359
10.638,8.284
10.456,8.062
10.16,7.656
9.741,7.064
9.266,6.402
8.579,5.486
7.783,4.517
7.069,3.749
6.277,3.022
5.594,2.515
5.125,2.235
4.723,2.032
4.515,1.914
4.507,1.901
4.549,1.896
4.599,1.886
4.65,1.856
4.714,1.778
4.75,1.679
4.766,1.598
4.776,1.503
4.794,1.437
4.837,1.417
4.938,1.468
5.031,1.53
5.033,1.514
4.978,1.472
4.938,1.458
4.901,1.465
4.856,1.465
4.794,1.478
4.744,1.475
4.653,1.461
4.534,1.46
4.428,1.48
4.293,1.513
4.123,1.589
4.02,1.686
3.912,1.845
3.848,2.059
3.824,2.238
3.821,2.45
3.878,2.629
3.915,2.751
3.952,2.853
3.943,2.91
3.929,2.947
3.918,2.961
3.912,3.057
3.911,3.13
3.93,3.162
3.951,3.184
3.995,3.22
4.034,3.256
4.097,3.31
4.156,3.346
4.233,3.408
4.34,3.478
4.424,3.519
4.515,3.543
4.595,3.535
4.66,3.505
4.72,3.475
4.759,3.412
4.764,3.406
4.755,3.451
4.738,3.479
4.71,3.482
4.686,3.471
4.64,3.481
4.578,3.446
4.517,3.4
4.432,3.357
4.353,3.323
4.224,3.32
4.139,3.335
4.064,3.388
4.007,3.492
3.979,3.617
3.956,3.75
3.64,3.971
3.086,4.152
2.422,4.348
1.385,4.651
0.052,5.065
-1.291,5.528
-2.983,6.201
-4.645,6.992
-5.921,7.711
-7.147,8.519
-8.075,9.209
-8.668,9.658
-9.19,9.985
-9.54,10.098
-9.607,10.08
-9.614,10.047
-9.627,9.992
-9.635,9.931
-9.653,9.846
-9.673,9.739
-9.699,9.652
-9.723,9.551
-9.735,9.453
-9.754,9.37
-9.802,9.306
-9.812,9.272
-9.832,9.266
-9.815,9.225
-9.869,9.132
-9.94,9.046
-9.972,9.012
-10.003,9.046
-10.015,9.066
-10.042,9.114
-10.106,9.187
-10.155,9.244
-10.221,9.354
-10.267,9.454
-10.266,9.556
-10.243,9.688
-10.181,9.799
-10.109,9.881
-10.014,9.966
-9.929,9.988
-9.882,10.003
-9.855,10.019
-9.833,10.028
-9.827,10.028
-9.859,10.005
-9.87,9.971
-9.896,9.937
-9.933,9.869